my_m_type/mul/wave.vcd
$version Generated by VerilatedVcd $end
$timescale 1s $end
 $scope module top $end
  $scope module test_top $end
   $var wire 1 %" rst_i $end
   $var wire 1 &" clk_i $end
   $var wire 1 Z halt_o $end
   $var wire 32 [ if_inst_addr_o [31:0] $end
   $var wire 32 (" if_inst_o [31:0] $end
   $var wire 32 $ ram_data_o [31:0] $end
   $var wire 1 % ctrl_flush_jump_o $end
   $var wire 32 )" ctrl_new_pc_o [31:0] $end
   $var wire 6 & ctrl_stall_o [5:0] $end
   $var wire 32 [ pc_wire [31:0] $end
   $var wire 1 \ ce_wire $end
   $var wire 32 ] if_id_inst_addr_o [31:0] $end
   $var wire 32 ^ if_id_inst_o [31:0] $end
   $var wire 5 ' id_reg1_addr_o [4:0] $end
   $var wire 5 ( id_reg2_addr_o [4:0] $end
   $var wire 1 ) id_reg1_re_o $end
   $var wire 1 * id_reg2_re_o $end
   $var wire 32 + id_inst_o [31:0] $end
   $var wire 32 , id_op1_o [31:0] $end
   $var wire 32 - id_op2_o [31:0] $end
   $var wire 1 . id_reg_we_o $end
   $var wire 5 / id_reg_waddr_o [4:0] $end
   $var wire 32 ] id_inst_addr_o [31:0] $end
   $var wire 1 _ id_stallreq_o $end
   $var wire 32 ` id_exe_op1_o [31:0] $end
   $var wire 32 a id_exe_op2_o [31:0] $end
   $var wire 1 b id_exe_reg_we_o $end
   $var wire 5 c id_exe_reg_waddr_o [4:0] $end
   $var wire 32 d id_exe_inst_o [31:0] $end
   $var wire 32 e id_exe_inst_addr_o [31:0] $end
   $var wire 1 f id_exe_inst_is_load_o $end
   $var wire 5 g id_exe_rd_o [4:0] $end
   $var wire 5 0 exe_reg_waddr_o [4:0] $end
   $var wire 1 1 exe_reg_we_o $end
   $var wire 32 2 exe_reg_wdata_o [31:0] $end
   $var wire 32 *" exe_mem_addr_o [31:0] $end
   $var wire 1 +" exe_mem_we_o $end
   $var wire 32 ," exe_mem_data_o [31:0] $end
   $var wire 4 -" exe_mem_op_o [3:0] $end
   $var wire 1 3 exe_stallreq_o $end
   $var wire 1 % exe_jump_enable_o $end
   $var wire 32 ." exe_jump_addr_o [31:0] $end
   $var wire 5 h exe_mem_reg_waddr_o [4:0] $end
   $var wire 1 i exe_mem_reg_we_o $end
   $var wire 32 j exe_mem_reg_wdata_o [31:0] $end
   $var wire 32 k exe_mem_mem_addr_o [31:0] $end
   $var wire 1 l exe_mem_mem_we_o $end
   $var wire 32 m exe_mem_mem_data_o [31:0] $end
   $var wire 4 n exe_mem_mem_op_o [3:0] $end
   $var wire 5 4 mem_reg_waddr_o [4:0] $end
   $var wire 1 5 mem_reg_we_o $end
   $var wire 32 6 mem_reg_wdata_o [31:0] $end
   $var wire 32 7 mem_mem_addr_o [31:0] $end
   $var wire 1 8 mem_mem_we_o $end
   $var wire 32 9 mem_mem_data_o [31:0] $end
   $var wire 1 Z mem_halt_o $end
   $var wire 5 o mem_wb_reg_waddr_o [4:0] $end
   $var wire 1 p mem_wb_reg_we_o $end
   $var wire 32 q mem_wb_reg_wdata_o [31:0] $end
   $var wire 32 : reg1_data_o [31:0] $end
   $var wire 32 ; reg2_data_o [31:0] $end
   $scope module regfile0 $end
    $var wire 1 &" clk_i $end
    $var wire 1 %" rst_i $end
    $var wire 1 p we_i $end
    $var wire 5 o waddr_i [4:0] $end
    $var wire 32 q wdata_i [31:0] $end
    $var wire 1 ) re1_i $end
    $var wire 5 ' raddr1_i [4:0] $end
    $var wire 1 * re2_i $end
    $var wire 5 ( raddr2_i [4:0] $end
    $var wire 32 : rdata1_o [31:0] $end
    $var wire 32 ; rdata2_o [31:0] $end
    $var wire 32 b! regs[0] [31:0] $end
    $var wire 32 c! regs[1] [31:0] $end
    $var wire 32 d! regs[2] [31:0] $end
    $var wire 32 e! regs[3] [31:0] $end
    $var wire 32 f! regs[4] [31:0] $end
    $var wire 32 g! regs[5] [31:0] $end
    $var wire 32 h! regs[6] [31:0] $end
    $var wire 32 i! regs[7] [31:0] $end
    $var wire 32 j! regs[8] [31:0] $end
    $var wire 32 k! regs[9] [31:0] $end
    $var wire 32 l! regs[10] [31:0] $end
    $var wire 32 m! regs[11] [31:0] $end
    $var wire 32 n! regs[12] [31:0] $end
    $var wire 32 o! regs[13] [31:0] $end
    $var wire 32 p! regs[14] [31:0] $end
    $var wire 32 q! regs[15] [31:0] $end
    $var wire 32 r! regs[16] [31:0] $end
    $var wire 32 s! regs[17] [31:0] $end
    $var wire 32 t! regs[18] [31:0] $end
    $var wire 32 u! regs[19] [31:0] $end
    $var wire 32 v! regs[20] [31:0] $end
    $var wire 32 w! regs[21] [31:0] $end
    $var wire 32 x! regs[22] [31:0] $end
    $var wire 32 y! regs[23] [31:0] $end
    $var wire 32 z! regs[24] [31:0] $end
    $var wire 32 {! regs[25] [31:0] $end
    $var wire 32 |! regs[26] [31:0] $end
    $var wire 32 }! regs[27] [31:0] $end
    $var wire 32 ~! regs[28] [31:0] $end
    $var wire 32 !" regs[29] [31:0] $end
    $var wire 32 "" regs[30] [31:0] $end
    $var wire 32 #" regs[31] [31:0] $end
    $var wire 32 # i [31:0] $end
   $upscope $end
   $var wire 32 2" MemSize [31:0] $end
   $var wire 32 3" MemAddrWidth [31:0] $end
   $var wire 1 < mem_ram_ce_o $end
   $scope module data_ram0 $end
    $var wire 32 9" RAM_SIZE [31:0] $end
    $var wire 32 :" RAM_ADDR_WIDTH [31:0] $end
    $var wire 1 &" clk_i $end
    $var wire 1 < ce_i $end
    $var wire 32 7 addr_i [31:0] $end
    $var wire 1 8 we_i $end
    $var wire 32 9 data_i [31:0] $end
    $var wire 32 $ data_o [31:0] $end
    $var wire 1 \ inst_ce_i $end
    $var wire 32 [ pc_i [31:0] $end
    $var wire 32 (" inst_o [31:0] $end
    $var wire 21 Y addr4 [20:0] $end
    $var wire 21 $" rom_addr4 [20:0] $end
   $upscope $end
   $scope module ctrl0 $end
    $var wire 1 %" rst_i $end
    $var wire 1 _ stallreq_from_id_i $end
    $var wire 1 3 stallreq_from_exe_i $end
    $var wire 1 % jump_en_i $end
    $var wire 32 ." jump_addr_i [31:0] $end
    $var wire 6 & stall_o [5:0] $end
    $var wire 1 % flush_jump_o $end
    $var wire 32 )" new_pc_o [31:0] $end
   $upscope $end
   $scope module exe0 $end
    $var wire 1 &" clk_i $end
    $var wire 1 %" rst_i $end
    $var wire 32 ` op1_i [31:0] $end
    $var wire 32 a op2_i [31:0] $end
    $var wire 1 b reg_we_i $end
    $var wire 5 c reg_waddr_i [4:0] $end
    $var wire 32 d inst_i [31:0] $end
    $var wire 32 e inst_addr_i [31:0] $end
    $var wire 5 0 reg_waddr_o [4:0] $end
    $var wire 1 1 reg_we_o $end
    $var wire 32 2 reg_wdata_o [31:0] $end
    $var wire 1 +" mem_we_o $end
    $var wire 32 *" mem_addr_o [31:0] $end
    $var wire 32 ," mem_data_o [31:0] $end
    $var wire 4 -" mem_op_o [3:0] $end
    $var wire 32 ." jump_addr_o [31:0] $end
    $var wire 1 % jump_enable_o $end
    $var wire 1 3 stallreq_o $end
    $var wire 7 r opcode [6:0] $end
    $var wire 3 s funct3 [2:0] $end
    $var wire 7 t funct7 [6:0] $end
    $var wire 1 /" i_reg_we_o $end
    $var wire 32 = i_reg_wdata_o [31:0] $end
    $var wire 1 0" r_reg_we_o $end
    $var wire 32 > r_reg_wdata_o [31:0] $end
    $var wire 1 ? s_reg_we_o $end
    $var wire 32 4" s_reg_wdata_o [31:0] $end
    $var wire 32 @ s_mem_data_o [31:0] $end
    $var wire 32 A s_mem_addr_o [31:0] $end
    $var wire 1 B s_mem_we_o $end
    $var wire 4 C s_mem_op_o [3:0] $end
    $var wire 32 u b_jump_addr_o [31:0] $end
    $var wire 1 v b_jump_enable_o $end
    $var wire 1 1" m_reg_we_o $end
    $var wire 1 3 mult_div_stall $end
    $var wire 32 D m_reg_wdata_o [31:0] $end
    $scope module exe_type_b_j0 $end
     $var wire 1 %" rst_i $end
     $var wire 32 d inst_i [31:0] $end
     $var wire 32 e inst_addr_i [31:0] $end
     $var wire 32 ` op1_i [31:0] $end
     $var wire 32 a op2_i [31:0] $end
     $var wire 32 u jump_addr_o [31:0] $end
     $var wire 1 v jump_enable_o $end
     $var wire 7 r opcode [6:0] $end
     $var wire 3 s funct3 [2:0] $end
     $var wire 1 w op1_eq_op2 $end
     $var wire 1 x op1_ge_op2_signed $end
     $var wire 1 y op1_ge_op2_unsigned $end
     $var wire 32 e pc [31:0] $end
     $var wire 32 z b_imm [31:0] $end
     $var wire 32 { jal_imm [31:0] $end
    $upscope $end
    $scope module exe_type_i0 $end
     $var wire 1 %" rst_i $end
     $var wire 32 ` op1_i [31:0] $end
     $var wire 32 a op2_i [31:0] $end
     $var wire 32 d inst_i [31:0] $end
     $var wire 32 = reg_wdata_o [31:0] $end
     $var wire 1 /" reg_we_o $end
     $var wire 7 r opcode [6:0] $end
     $var wire 3 s funct3 [2:0] $end
     $var wire 7 t funct7 [6:0] $end
     $var wire 1 x op1_ge_op2_signed $end
     $var wire 1 y op1_ge_op2_unsigned $end
     $var wire 32 | sr_shift [31:0] $end
     $var wire 32 } sr_shift_mask [31:0] $end
     $var wire 1 ~ isType_i $end
    $upscope $end
    $scope module exe_type_m0 $end
     $var wire 1 &" clk_i $end
     $var wire 1 %" rst_i $end
     $var wire 32 ` op1_i [31:0] $end
     $var wire 32 a op2_i [31:0] $end
     $var wire 32 d inst_i [31:0] $end
     $var wire 1 3 stall_o $end
     $var wire 32 D reg_wdata_o [31:0] $end
     $var wire 1 1" reg_we_o $end
     $var wire 7 r opcode [6:0] $end
     $var wire 3 s funct3 [2:0] $end
     $var wire 7 t funct7 [6:0] $end
     $var wire 1 !! isType_m $end
     $var wire 32 E a_o [31:0] $end
     $var wire 32 F b_o [31:0] $end
     $var wire 32 "! div_result [31:0] $end
     $var wire 1 G is_q_operation $end
     $var wire 1 H mult_req_o $end
     $var wire 1 I div_req_o $end
     $var wire 1 #! mult_ready_i $end
     $var wire 1 $! div_ready_i $end
     $var wire 64 %! mult_result_i [63:0] $end
     $var wire 32 J result [31:0] $end
     $var wire 1 '! is_a_neg $end
     $var wire 1 (! is_b_neg $end
     $var wire 1 )! is_b_zero $end
     $var wire 1 *! signed_adjust $end
     $var wire 64 K invert_result [63:0] $end
     $scope module div0 $end
      $var wire 32 5" XLEN [31:0] $end
      $var wire 1 &" clk_i $end
      $var wire 1 %" rst_i $end
      $var wire 32 E a_i [31:0] $end
      $var wire 32 F b_i [31:0] $end
      $var wire 1 I req_i $end
      $var wire 1 G is_q_i $end
      $var wire 32 "! result_o [31:0] $end
      $var wire 1 $! ready_o $end
      $var wire 1 M is_a_zero $end
      $var wire 1 N is_b_zero $end
      $var wire 32 E op_a [31:0] $end
      $var wire 32 F op_b [31:0] $end
      $var wire 1 +! is_calc_done $end
      $var wire 32 ,! reg32 [31:0] $end
      $var wire 65 -! result [64:0] $end
      $var wire 6 0! cnt [5:0] $end
      $var wire 32 1! quotient [31:0] $end
      $var wire 32 2! remainder [31:0] $end
      $var wire 3 6" S_IDLE [2:0] $end
      $var wire 3 7" S_CALC [2:0] $end
      $var wire 3 8" S_DONE [2:0] $end
      $var wire 3 3! S [2:0] $end
      $var wire 3 O S_next [2:0] $end
      $var wire 1 4! div_sub $end
      $var wire 33 5! sub_tmp [32:0] $end
      $var wire 65 7! result_tmp [64:0] $end
     $upscope $end
     $scope module mul0 $end
      $var wire 32 5" XLEN [31:0] $end
      $var wire 1 &" clk_i $end
      $var wire 1 %" rst_i $end
      $var wire 32 E a_i [31:0] $end
      $var wire 32 F b_i [31:0] $end
      $var wire 1 H req_i $end
      $var wire 1 #! ready_o $end
      $var wire 64 %! result_o [63:0] $end
      $var wire 1 P is_a_zero $end
      $var wire 1 Q is_b_zero $end
      $var wire 32 E op_a [31:0] $end
      $var wire 32 F op_b [31:0] $end
      $var wire 1 :! is_calc_done $end
      $var wire 32 ;! reg32 [31:0] $end
      $var wire 65 <! result [64:0] $end
      $var wire 6 ?! cnt [5:0] $end
      $var wire 3 6" S_IDLE [2:0] $end
      $var wire 3 7" S_CALC [2:0] $end
      $var wire 3 8" S_DONE [2:0] $end
      $var wire 3 @! S [2:0] $end
      $var wire 3 R S_nxt [2:0] $end
      $var wire 1 A! mul_add $end
      $var wire 32 ;! adder_opa [31:0] $end
      $var wire 32 B! adder_opb [31:0] $end
      $var wire 33 C! adder_tmp [32:0] $end
      $var wire 65 E! result_tmp [64:0] $end
     $upscope $end
    $upscope $end
    $scope module exe_type_r0 $end
     $var wire 1 %" rst_i $end
     $var wire 32 ` op1_i [31:0] $end
     $var wire 32 a op2_i [31:0] $end
     $var wire 32 d inst_i [31:0] $end
     $var wire 32 > reg_wdata_o [31:0] $end
     $var wire 1 0" reg_we_o $end
     $var wire 7 r opcode [6:0] $end
     $var wire 3 s funct3 [2:0] $end
     $var wire 7 t funct7 [6:0] $end
     $var wire 1 x op1_ge_op2_signed $end
     $var wire 1 y op1_ge_op2_unsigned $end
     $var wire 32 | sr_shift [31:0] $end
     $var wire 32 } sr_shift_mask [31:0] $end
     $var wire 1 H! isType_r $end
    $upscope $end
    $scope module exe_type_s_l0 $end
     $var wire 1 %" rst_i $end
     $var wire 32 ` op1_i [31:0] $end
     $var wire 32 a op2_i [31:0] $end
     $var wire 32 d inst_i [31:0] $end
     $var wire 32 4" reg_wdata_o [31:0] $end
     $var wire 1 ? reg_we_o $end
     $var wire 32 A mem_addr_o [31:0] $end
     $var wire 32 @ mem_data_o [31:0] $end
     $var wire 1 B mem_we_o $end
     $var wire 4 C mem_op_o [3:0] $end
     $var wire 7 r opcode [6:0] $end
     $var wire 3 s funct3 [2:0] $end
     $var wire 32 I! load_addr_offset [31:0] $end
     $var wire 32 J! store_addr_offset [31:0] $end
    $upscope $end
   $upscope $end
   $scope module exe_mem0 $end
    $var wire 1 %" rst_i $end
    $var wire 1 &" clk_i $end
    $var wire 5 0 reg_waddr_i [4:0] $end
    $var wire 1 1 reg_we_i $end
    $var wire 32 2 reg_wdata_i [31:0] $end
    $var wire 1 +" mem_we_i $end
    $var wire 32 *" mem_addr_i [31:0] $end
    $var wire 32 ," mem_data_i [31:0] $end
    $var wire 4 -" mem_op_i [3:0] $end
    $var wire 5 h reg_waddr_o [4:0] $end
    $var wire 1 i reg_we_o $end
    $var wire 32 j reg_wdata_o [31:0] $end
    $var wire 1 l mem_we_o $end
    $var wire 32 k mem_addr_o [31:0] $end
    $var wire 32 m mem_data_o [31:0] $end
    $var wire 4 n mem_op_o [3:0] $end
   $upscope $end
   $scope module id0 $end
    $var wire 1 %" rst_i $end
    $var wire 32 ] inst_addr_i [31:0] $end
    $var wire 32 ^ inst_i [31:0] $end
    $var wire 5 g exe_rd_i [4:0] $end
    $var wire 1 f pre_inst_is_load_i $end
    $var wire 32 : reg1_rdata_i [31:0] $end
    $var wire 32 ; reg2_rdata_i [31:0] $end
    $var wire 5 0 exe_reg_waddr_i [4:0] $end
    $var wire 32 2 exe_reg_wdata_i [31:0] $end
    $var wire 1 1 exe_reg_we_i $end
    $var wire 5 4 mem_reg_waddr_i [4:0] $end
    $var wire 32 6 mem_reg_wdata_i [31:0] $end
    $var wire 1 5 mem_reg_we_i $end
    $var wire 5 ' reg1_raddr_o [4:0] $end
    $var wire 5 ( reg2_raddr_o [4:0] $end
    $var wire 1 ) reg1_re_o $end
    $var wire 1 * reg2_re_o $end
    $var wire 32 + inst_o [31:0] $end
    $var wire 32 , op1_o [31:0] $end
    $var wire 32 - op2_o [31:0] $end
    $var wire 1 . reg_we_o $end
    $var wire 5 / reg_waddr_o [4:0] $end
    $var wire 32 ] inst_addr_o [31:0] $end
    $var wire 1 _ stallreq_o $end
    $var wire 32 S op1_o_final [31:0] $end
    $var wire 32 T op2_o_final [31:0] $end
    $var wire 7 K! funct7 [6:0] $end
    $var wire 7 L! opcode [6:0] $end
    $var wire 3 M! funct3 [2:0] $end
    $var wire 5 N! rd [4:0] $end
    $var wire 5 O! rs1 [4:0] $end
    $var wire 5 P! rs2 [4:0] $end
    $var wire 1 _ is_load_hazard $end
    $var wire 5 Q! i_reg1_raddr_o [4:0] $end
    $var wire 5 R! i_reg2_raddr_o [4:0] $end
    $var wire 1 S! i_reg1_re_o $end
    $var wire 1 T! i_reg2_re_o $end
    $var wire 32 U i_op1_o [31:0] $end
    $var wire 32 U! i_op2_o [31:0] $end
    $var wire 1 V! i_reg_we_o $end
    $var wire 5 W! i_reg_waddr_o [4:0] $end
    $var wire 5 X! r_reg1_raddr_o [4:0] $end
    $var wire 5 Y! r_reg2_raddr_o [4:0] $end
    $var wire 1 Z! r_reg1_re_o $end
    $var wire 1 [! r_reg2_re_o $end
    $var wire 32 V r_op1_o [31:0] $end
    $var wire 32 W r_op2_o [31:0] $end
    $var wire 1 \! r_reg_we_o $end
    $var wire 5 ]! r_reg_waddr_o [4:0] $end
    $scope module inst_type_i $end
     $var wire 32 ^ inst_i [31:0] $end
     $var wire 32 : reg1_rdata_i [31:0] $end
     $var wire 5 Q! reg1_raddr_o [4:0] $end
     $var wire 5 R! reg2_raddr_o [4:0] $end
     $var wire 1 S! reg1_re_o $end
     $var wire 1 T! reg2_re_o $end
     $var wire 32 U op1_o [31:0] $end
     $var wire 32 U! op2_o [31:0] $end
     $var wire 1 V! reg_we_o $end
     $var wire 5 W! reg_waddr_o [4:0] $end
     $var wire 7 L! opcode [6:0] $end
     $var wire 3 M! funct3 [2:0] $end
     $var wire 7 K! funct7 [6:0] $end
     $var wire 5 P! shamt [4:0] $end
     $var wire 5 N! rd [4:0] $end
     $var wire 5 O! rs1 [4:0] $end
     $var wire 5 P! rs2 [4:0] $end
     $var wire 1 ^! isType_i $end
    $upscope $end
    $scope module inst_type_r $end
     $var wire 32 ^ inst_i [31:0] $end
     $var wire 32 : reg1_rdata_i [31:0] $end
     $var wire 32 ; reg2_rdata_i [31:0] $end
     $var wire 5 X! reg1_raddr_o [4:0] $end
     $var wire 5 Y! reg2_raddr_o [4:0] $end
     $var wire 1 Z! reg1_re_o $end
     $var wire 1 [! reg2_re_o $end
     $var wire 32 V op1_o [31:0] $end
     $var wire 32 W op2_o [31:0] $end
     $var wire 1 \! reg_we_o $end
     $var wire 5 ]! reg_waddr_o [4:0] $end
     $var wire 7 L! opcode [6:0] $end
     $var wire 3 M! funct3 [2:0] $end
     $var wire 7 K! funct7 [6:0] $end
     $var wire 5 P! shamt [4:0] $end
     $var wire 5 N! rd [4:0] $end
     $var wire 5 O! rs1 [4:0] $end
     $var wire 5 P! rs2 [4:0] $end
     $var wire 1 _! isType_r $end
     $var wire 1 `! isType_m $end
    $upscope $end
   $upscope $end
   $scope module id_exe0 $end
    $var wire 1 %" rst_i $end
    $var wire 1 &" clk_i $end
    $var wire 32 , op1_i [31:0] $end
    $var wire 32 - op2_i [31:0] $end
    $var wire 1 . reg_we_i $end
    $var wire 5 / reg_waddr_i [4:0] $end
    $var wire 32 + inst_i [31:0] $end
    $var wire 32 ] inst_addr_i [31:0] $end
    $var wire 1 f inst_is_load_o $end
    $var wire 5 g rd_o [4:0] $end
    $var wire 6 & stall_i [5:0] $end
    $var wire 1 % flush_jump_i $end
    $var wire 32 ` op1_o [31:0] $end
    $var wire 32 a op2_o [31:0] $end
    $var wire 1 b reg_we_o $end
    $var wire 5 c reg_waddr_o [4:0] $end
    $var wire 32 e inst_addr_o [31:0] $end
    $var wire 32 d inst_o [31:0] $end
    $var wire 7 X opcode [6:0] $end
   $upscope $end
   $scope module if_id0 $end
    $var wire 1 &" clk_i $end
    $var wire 1 %" rst_i $end
    $var wire 32 [ inst_addr_i [31:0] $end
    $var wire 32 (" inst_i [31:0] $end
    $var wire 6 & stall_i [5:0] $end
    $var wire 1 % flush_jump_i $end
    $var wire 32 ] inst_addr_o [31:0] $end
    $var wire 32 ^ inst_o [31:0] $end
   $upscope $end
   $scope module mem0 $end
    $var wire 1 &" clk_i $end
    $var wire 1 %" rst_i $end
    $var wire 5 h reg_waddr_i [4:0] $end
    $var wire 1 i reg_we_i $end
    $var wire 32 j reg_wdata_i [31:0] $end
    $var wire 1 l mem_we_i $end
    $var wire 32 k mem_addr_i [31:0] $end
    $var wire 32 m mem_data_i [31:0] $end
    $var wire 4 n mem_op_i [3:0] $end
    $var wire 32 $ ram_data_i [31:0] $end
    $var wire 32 7 ram_addr_o [31:0] $end
    $var wire 1 8 ram_w_request_o $end
    $var wire 32 9 ram_data_o [31:0] $end
    $var wire 1 < ram_ce_o $end
    $var wire 5 4 reg_waddr_o [4:0] $end
    $var wire 1 5 reg_we_o $end
    $var wire 32 6 reg_wdata_o [31:0] $end
    $var wire 1 Z halt_o $end
    $var wire 2 a! ram_addr_offset [1:0] $end
    $var wire 32 6 reg_wdata [31:0] $end
   $upscope $end
   $scope module mem_wb0 $end
    $var wire 1 %" rst_i $end
    $var wire 1 &" clk_i $end
    $var wire 5 4 reg_waddr_i [4:0] $end
    $var wire 1 5 reg_we_i $end
    $var wire 32 6 reg_wdata_i [31:0] $end
    $var wire 5 o reg_waddr_o [4:0] $end
    $var wire 1 p reg_we_o $end
    $var wire 32 q reg_wdata_o [31:0] $end
   $upscope $end
   $scope module pc_reg0 $end
    $var wire 1 &" clk_i $end
    $var wire 1 %" rst_i $end
    $var wire 32 )" new_pc_i [31:0] $end
    $var wire 1 % flush_jump_i $end
    $var wire 6 & stall_i [5:0] $end
    $var wire 32 [ pc_o [31:0] $end
    $var wire 1 \ ce_o $end
    $var wire 1 % is_new_pc $end
   $upscope $end
  $upscope $end
  $var wire 1 %" rst_i $end
  $var wire 1 &" clk_i $end
  $var wire 1 '" halt_o $end
 $upscope $end
$enddefinitions $end


#5
b00000000000000000000000000100000 #
b00000000000000000000000000000000 $
0%
b000000 &
b00000 '
b00000 (
0)
0*
b00000000000000000000000000010011 +
b00000000000000000000000000000000 ,
b00000000000000000000000000000000 -
0.
b00000 /
b00000 0
01
b00000000000000000000000000000000 2
03
b00000 4
05
b00000000000000000000000000000000 6
b00000000000000000000000000000000 7
08
b00000000000000000000000000000000 9
b00000000000000000000000000000000 :
b00000000000000000000000000000000 ;
0<
b00000000000000000000000000000000 =
b00000000000000000000000000000000 >
0?
b00000000000000000000000000000000 @
b00000000000000000000000000000000 A
0B
b0000 C
b00000000000000000000000000000000 D
b00000000000000000000000000000000 E
b00000000000000000000000000000000 F
0G
0H
0I
b00000000000000000000000000000000 J
b0000000000000000000000000000000000000000000000000000000000000000 K
1M
1N
b000 O
1P
1Q
b011 R
b00000000000000000000000000000000 S
b00000000000000000000000000000000 T
b00000000000000000000000000000000 U
b00000000000000000000000000000000 V
b00000000000000000000000000000000 W
b0010011 X
b000000000000000000000 Y
0Z
b00000000000000000000000000000000 [
0\
b00000000000000000000000000000000 ]
b00000000000000000000000000000000 ^
0_
b00000000000000000000000000000000 `
b00000000000000000000000000000000 a
0b
b00000 c
b00000000000000000000000000000000 d
b00000000000000000000000000000000 e
0f
b00000 g
b00000 h
0i
b00000000000000000000000000000000 j
b00000000000000000000000000000000 k
0l
b00000000000000000000000000000000 m
b0000 n
b00000 o
0p
b00000000000000000000000000000000 q
b0000000 r
b000 s
b0000000 t
b00000000000000000000000000000000 u
0v
1w
1x
1y
b00000000000000000000000000000000 z
b00000000000000000000000000000000 {
b00000000000000000000000000000000 |
b11111111111111111111111111111111 }
0~
0!!
b00000000000000000000000000000000 "!
0#!
0$!
b0000000000000000000000000000000000000000000000000000000000000000 %!
0'!
0(!
1)!
0*!
1+!
b00000000000000000000000000000000 ,!
b00000000000000000000000000000000000000000000000000000000000000000 -!
b000000 0!
b00000000000000000000000000000000 1!
b00000000000000000000000000000000 2!
b000 3!
14!
b000000000000000000000000000000000 5!
b00000000000000000000000000000000000000000000000000000000000000000 7!
1:!
b00000000000000000000000000000000 ;!
b00000000000000000000000000000000000000000000000000000000000000000 <!
b000000 ?!
b000 @!
0A!
b00000000000000000000000000000000 B!
b000000000000000000000000000000000 C!
b00000000000000000000000000000000000000000000000000000000000000000 E!
0H!
b00000000000000000000000000000000 I!
b00000000000000000000000000000000 J!
b0000000 K!
b0000000 L!
b000 M!
b00000 N!
b00000 O!
b00000 P!
b00000 Q!
b00000 R!
0S!
0T!
b00000000000000000000000000000000 U!
0V!
b00000 W!
b00000 X!
b00000 Y!
0Z!
0[!
0\!
b00000 ]!
0^!
0_!
0`!
b00 a!
b00000000000000000000000000000000 b!
b00000000000000000000000000000000 c!
b00000000000000000000000000000000 d!
b00000000000000000000000000000000 e!
b00000000000000000000000000000000 f!
b00000000000000000000000000000000 g!
b00000000000000000000000000000000 h!
b00000000000000000000000000000000 i!
b00000000000000000000000000000000 j!
b00000000000000000000000000000000 k!
b00000000000000000000000000000000 l!
b00000000000000000000000000000000 m!
b00000000000000000000000000000000 n!
b00000000000000000000000000000000 o!
b00000000000000000000000000000000 p!
b00000000000000000000000000000000 q!
b00000000000000000000000000000000 r!
b00000000000000000000000000000000 s!
b00000000000000000000000000000000 t!
b00000000000000000000000000000000 u!
b00000000000000000000000000000000 v!
b00000000000000000000000000000000 w!
b00000000000000000000000000000000 x!
b00000000000000000000000000000000 y!
b00000000000000000000000000000000 z!
b00000000000000000000000000000000 {!
b00000000000000000000000000000000 |!
b00000000000000000000000000000000 }!
b00000000000000000000000000000000 ~!
b00000000000000000000000000000000 !"
b00000000000000000000000000000000 ""
b00000000000000000000000000000000 #"
b000000000000000000000 $"
1%"
0&"
0'"
b00000000000000000000000000000000 ("
b00000000000000000000000000000000 )"
b00000000000000000000000000000000 *"
0+"
b00000000000000000000000000000000 ,"
b0000 -"
b00000000000000000000000000000000 ."
0/"
00"
01"
b00000000001000000000000000000000 2"
b00000000000000000000000000010101 3"
b00000000000000000000000000000000 4"
b00000000000000000000000000100000 5"
b000 6"
b001 7"
b011 8"
b00000000001000000000000000000000 9"
b00000000000000000000000000010101 :"
#10
b00000000000000000000000000010011 ^
b00000000000000000000000000010011 d
1i
b0010011 r
1~
b0010011 L!
1S!
1V!
1^!
1&"
#15
0&"
#20
1&"
#25
0&"
#30
1&"
#35
0&"
#40
1&"
#45
0&"
#50
1&"
#55
1)
1.
11
15
0%"
0&"
1/"
#60
0)
0.
1\
b00000000000000000000000000000000 ^
1b
1p
b0000000 L!
0S!
0V!
0^!
1&"
b00000001001100000000000010010011 ("
#65
0&"
#70
1)
b00000001001100000000000010010011 +
b00000000000000000000000000010011 -
1.
b00001 /
b00000000000000000000000000010011 T
b00000000000000000000000000000100 [
b00000001001100000000000010010011 ^
0b
b0010011 L!
b00001 N!
b10011 P!
1S!
b00000000000000000000000000010011 U!
1V!
b00001 W!
1^!
b000000000000000000100 $"
1&"
b00000000001100000000000100010011 ("
#75
0&"
#80
b00000000001100000000000100010011 +
b00000000000000000000000000000011 -
b00010 /
b00001 0
b00000000000000000000000000010011 2
b00000000000000000000000000010011 =
b00000000000000000000000000000011 T
b00000000000000000000000000001000 [
b00000000000000000000000000000100 ]
b00000000001100000000000100010011 ^
b00000000000000000000000000010011 a
1b
b00001 c
b00000001001100000000000010010011 d
b00001 g
0w
0x
0y
b00000000000000000000100000000000 z
b00000000000000000000100000010010 {
b00000000000000000001111111111111 }
0)!
b00000000000000000000000000010011 I!
b00000000000000000000000000000001 J!
b00010 N!
b00011 P!
b00000000000000000000000000000011 U!
b00010 W!
b000000000000000001000 $"
1&"
b00000010001000001000000110110011 ("
#85
0&"
#90
b00001 '
b00010 (
1*
b00000010001000001000000110110011 +
b00000000000000000000000000010011 ,
b00011 /
b00010 0
b00000000000000000000000000000011 2
b00001 4
b00000000000000000000000000010011 6
b00000000000000000000000000000011 =
b00000000000000000000000000000000 T
b0110011 X
b00000000000000000000000000001100 [
b00000000000000000000000000001000 ]
b00000010001000001000000110110011 ^
b00000000000000000000000000000011 a
b00010 c
b00000000001100000000000100010011 d
b00000000000000000000000000000100 e
b00010 g
b00001 h
b00000000000000000000000000010011 j
b00000000000000000000000000000010 z
b00000000000000000000100000000010 {
b00011111111111111111111111111111 }
b00000000000000000000000000000011 I!
b00000000000000000000000000000010 J!
b0000001 K!
b0110011 L!
b00011 N!
b00001 O!
b00010 P!
0S!
b00000000000000000000000000000000 U!
0V!
b00000 W!
b00001 X!
b00010 Y!
1Z!
1[!
1\!
b00011 ]!
0^!
1`!
b000000000000000001100 $"
1&"
b00010000000000000000111100110111 ("
#95
0&"
#100
b001111 &
b00000 '
b00000 (
0)
0*
b00010000000000000000111100110111 +
b00010000000000000000000000000000 ,
b00000000000000000000000000000000 -
b11110 /
b00011 0
b00000000000000000000000000000000 2
13
b00010 4
b00000000000000000000000000000011 6
b00000000000000000000000000000000 =
b00000000000000000000000000010011 E
b00000000000000000000000000000011 F
1H
0M
0N
0P
0Q
b001 R
b00010000000000000000000000000000 S
b0110111 X
b00000000000000000000000000010000 [
b00000000000000000000000000001100 ]
b00010000000000000000111100110111 ^
b00000000000000000000000000010011 `
b00011 c
b00000010001000001000000110110011 d
b00000000000000000000000000001000 e
b00011 g
b00010 h
b00000000000000000000000000000011 j
b00001 o
b00000000000000000000000000010011 q
b0110011 r
b0000001 t
1x
1y
b00000000000000000000100000100010 z
b00000000000000001000000000100010 {
b00000000000000000000000000000010 |
0~
1!!
b00000000000000000000000000100010 I!
b00000000000000000000000000100011 J!
b0001000 K!
b0110111 L!
b11110 N!
b00000 O!
b00000 P!
b00000 X!
b00000 Y!
0Z!
0[!
0\!
b00000 ]!
0`!
b000000000000000010000 $"
1&"
b11111111111111110000111100010011 ("
0/"
11"
#105
0&"
