my_jb_type/type_b/wave.vcd
$version Generated by VerilatedVcd $end
$timescale 1s $end
 $scope module top $end
  $scope module test_top $end
   $var wire 1 K! rst_i $end
   $var wire 1 L! clk_i $end
   $var wire 32 J if_inst_addr_o [31:0] $end
   $var wire 32 M! if_inst_o [31:0] $end
   $var wire 1 $ ctrl_flush_jump_o $end
   $var wire 32 N! ctrl_new_pc_o [31:0] $end
   $var wire 6 % ctrl_stall_o [5:0] $end
   $var wire 32 & ram_data_o [31:0] $end
   $var wire 32 J pc_wire [31:0] $end
   $var wire 1 K ce_wire $end
   $var wire 32 L if_id_inst_addr_o [31:0] $end
   $var wire 32 M if_id_inst_o [31:0] $end
   $var wire 5 ' id_reg1_addr_o [4:0] $end
   $var wire 5 ( id_reg2_addr_o [4:0] $end
   $var wire 1 ) id_reg1_re_o $end
   $var wire 1 * id_reg2_re_o $end
   $var wire 32 + id_inst_o [31:0] $end
   $var wire 32 , id_op1_o [31:0] $end
   $var wire 32 - id_op2_o [31:0] $end
   $var wire 1 . id_reg_we_o $end
   $var wire 5 / id_reg_waddr_o [4:0] $end
   $var wire 32 L id_inst_addr_o [31:0] $end
   $var wire 1 N id_stallreq_o $end
   $var wire 32 O id_exe_op1_o [31:0] $end
   $var wire 32 P id_exe_op2_o [31:0] $end
   $var wire 1 Q id_exe_reg_we_o $end
   $var wire 5 R id_exe_reg_waddr_o [4:0] $end
   $var wire 32 S id_exe_inst_o [31:0] $end
   $var wire 32 T id_exe_inst_addr_o [31:0] $end
   $var wire 1 U id_exe_inst_is_load_o $end
   $var wire 5 V id_exe_rd_o [4:0] $end
   $var wire 5 0 exe_reg_waddr_o [4:0] $end
   $var wire 1 1 exe_reg_we_o $end
   $var wire 32 2 exe_reg_wdata_o [31:0] $end
   $var wire 32 O! exe_mem_addr_o [31:0] $end
   $var wire 1 P! exe_mem_we_o $end
   $var wire 32 Q! exe_mem_data_o [31:0] $end
   $var wire 4 R! exe_mem_op_o [3:0] $end
   $var wire 1 V! exe_stallreq_o $end
   $var wire 1 $ exe_jump_enable_o $end
   $var wire 32 S! exe_jump_addr_o [31:0] $end
   $var wire 5 W exe_mem_reg_waddr_o [4:0] $end
   $var wire 1 X exe_mem_reg_we_o $end
   $var wire 32 Y exe_mem_reg_wdata_o [31:0] $end
   $var wire 32 Z exe_mem_mem_addr_o [31:0] $end
   $var wire 1 [ exe_mem_mem_we_o $end
   $var wire 32 \ exe_mem_mem_data_o [31:0] $end
   $var wire 4 ] exe_mem_mem_op_o [3:0] $end
   $var wire 5 3 mem_reg_waddr_o [4:0] $end
   $var wire 1 4 mem_reg_we_o $end
   $var wire 32 5 mem_reg_wdata_o [31:0] $end
   $var wire 32 6 mem_mem_addr_o [31:0] $end
   $var wire 1 7 mem_mem_we_o $end
   $var wire 32 8 mem_mem_data_o [31:0] $end
   $var wire 5 ^ mem_wb_reg_waddr_o [4:0] $end
   $var wire 1 _ mem_wb_reg_we_o $end
   $var wire 32 ` mem_wb_reg_wdata_o [31:0] $end
   $var wire 32 9 reg1_data_o [31:0] $end
   $var wire 32 : reg2_data_o [31:0] $end
   $scope module regfile0 $end
    $var wire 1 L! clk_i $end
    $var wire 1 K! rst_i $end
    $var wire 1 _ we_i $end
    $var wire 5 ^ waddr_i [4:0] $end
    $var wire 32 ` wdata_i [31:0] $end
    $var wire 1 ) re1_i $end
    $var wire 5 ' raddr1_i [4:0] $end
    $var wire 1 * re2_i $end
    $var wire 5 ( raddr2_i [4:0] $end
    $var wire 32 9 rdata1_o [31:0] $end
    $var wire 32 : rdata2_o [31:0] $end
    $var wire 32 *! regs[0] [31:0] $end
    $var wire 32 +! regs[1] [31:0] $end
    $var wire 32 ,! regs[2] [31:0] $end
    $var wire 32 -! regs[3] [31:0] $end
    $var wire 32 .! regs[4] [31:0] $end
    $var wire 32 /! regs[5] [31:0] $end
    $var wire 32 0! regs[6] [31:0] $end
    $var wire 32 1! regs[7] [31:0] $end
    $var wire 32 2! regs[8] [31:0] $end
    $var wire 32 3! regs[9] [31:0] $end
    $var wire 32 4! regs[10] [31:0] $end
    $var wire 32 5! regs[11] [31:0] $end
    $var wire 32 6! regs[12] [31:0] $end
    $var wire 32 7! regs[13] [31:0] $end
    $var wire 32 8! regs[14] [31:0] $end
    $var wire 32 9! regs[15] [31:0] $end
    $var wire 32 :! regs[16] [31:0] $end
    $var wire 32 ;! regs[17] [31:0] $end
    $var wire 32 <! regs[18] [31:0] $end
    $var wire 32 =! regs[19] [31:0] $end
    $var wire 32 >! regs[20] [31:0] $end
    $var wire 32 ?! regs[21] [31:0] $end
    $var wire 32 @! regs[22] [31:0] $end
    $var wire 32 A! regs[23] [31:0] $end
    $var wire 32 B! regs[24] [31:0] $end
    $var wire 32 C! regs[25] [31:0] $end
    $var wire 32 D! regs[26] [31:0] $end
    $var wire 32 E! regs[27] [31:0] $end
    $var wire 32 F! regs[28] [31:0] $end
    $var wire 32 G! regs[29] [31:0] $end
    $var wire 32 H! regs[30] [31:0] $end
    $var wire 32 I! regs[31] [31:0] $end
    $var wire 32 # i [31:0] $end
   $upscope $end
   $var wire 32 W! MemSize [31:0] $end
   $var wire 32 X! MemAddrWidth [31:0] $end
   $var wire 1 ; mem_ram_ce_o $end
   $scope module data_ram0 $end
    $var wire 32 Z! RAM_SIZE [31:0] $end
    $var wire 32 [! RAM_ADDR_WIDTH [31:0] $end
    $var wire 1 L! clk_i $end
    $var wire 1 ; ce_i $end
    $var wire 32 6 addr_i [31:0] $end
    $var wire 1 7 we_i $end
    $var wire 32 8 data_i [31:0] $end
    $var wire 32 & data_o [31:0] $end
    $var wire 1 K inst_ce_i $end
    $var wire 32 J pc_i [31:0] $end
    $var wire 32 M! inst_o [31:0] $end
    $var wire 21 I addr4 [20:0] $end
    $var wire 21 J! rom_addr4 [20:0] $end
   $upscope $end
   $scope module ctrl0 $end
    $var wire 1 K! rst_i $end
    $var wire 1 N stallreq_from_id_i $end
    $var wire 1 V! stallreq_from_exe_i $end
    $var wire 1 $ jump_en_i $end
    $var wire 32 S! jump_addr_i [31:0] $end
    $var wire 6 % stall_o [5:0] $end
    $var wire 1 $ flush_jump_o $end
    $var wire 32 N! new_pc_o [31:0] $end
   $upscope $end
   $scope module exe0 $end
    $var wire 1 K! rst_i $end
    $var wire 32 O op1_i [31:0] $end
    $var wire 32 P op2_i [31:0] $end
    $var wire 1 Q reg_we_i $end
    $var wire 5 R reg_waddr_i [4:0] $end
    $var wire 32 S inst_i [31:0] $end
    $var wire 32 T inst_addr_i [31:0] $end
    $var wire 5 0 reg_waddr_o [4:0] $end
    $var wire 1 1 reg_we_o $end
    $var wire 32 2 reg_wdata_o [31:0] $end
    $var wire 1 P! mem_we_o $end
    $var wire 32 O! mem_addr_o [31:0] $end
    $var wire 32 Q! mem_data_o [31:0] $end
    $var wire 4 R! mem_op_o [3:0] $end
    $var wire 32 S! jump_addr_o [31:0] $end
    $var wire 1 $ jump_enable_o $end
    $var wire 1 V! stallreq_o $end
    $var wire 7 a opcode [6:0] $end
    $var wire 3 b funct3 [2:0] $end
    $var wire 7 c funct7 [6:0] $end
    $var wire 1 T! i_reg_we_o $end
    $var wire 32 < i_reg_wdata_o [31:0] $end
    $var wire 1 U! r_reg_we_o $end
    $var wire 32 = r_reg_wdata_o [31:0] $end
    $var wire 1 > s_reg_we_o $end
    $var wire 32 Y! s_reg_wdata_o [31:0] $end
    $var wire 32 ? s_mem_data_o [31:0] $end
    $var wire 32 @ s_mem_addr_o [31:0] $end
    $var wire 1 A s_mem_we_o $end
    $var wire 4 B s_mem_op_o [3:0] $end
    $var wire 32 d b_jump_addr_o [31:0] $end
    $var wire 1 e b_jump_enable_o $end
    $scope module exe_type_b_j0 $end
     $var wire 1 K! rst_i $end
     $var wire 32 S inst_i [31:0] $end
     $var wire 32 T inst_addr_i [31:0] $end
     $var wire 32 O op1_i [31:0] $end
     $var wire 32 P op2_i [31:0] $end
     $var wire 32 d jump_addr_o [31:0] $end
     $var wire 1 e jump_enable_o $end
     $var wire 7 a opcode [6:0] $end
     $var wire 3 b funct3 [2:0] $end
     $var wire 1 f op1_eq_op2 $end
     $var wire 1 g op1_ge_op2_signed $end
     $var wire 1 h op1_ge_op2_unsigned $end
     $var wire 32 T pc [31:0] $end
     $var wire 32 i b_imm [31:0] $end
     $var wire 32 j jal_imm [31:0] $end
    $upscope $end
    $scope module exe_type_i0 $end
     $var wire 1 K! rst_i $end
     $var wire 32 O op1_i [31:0] $end
     $var wire 32 P op2_i [31:0] $end
     $var wire 32 S inst_i [31:0] $end
     $var wire 32 < reg_wdata_o [31:0] $end
     $var wire 1 T! reg_we_o $end
     $var wire 7 a opcode [6:0] $end
     $var wire 3 b funct3 [2:0] $end
     $var wire 7 c funct7 [6:0] $end
     $var wire 1 g op1_ge_op2_signed $end
     $var wire 1 h op1_ge_op2_unsigned $end
     $var wire 32 k sr_shift [31:0] $end
     $var wire 32 l sr_shift_mask [31:0] $end
     $var wire 1 m isType_i $end
    $upscope $end
    $scope module exe_type_r0 $end
     $var wire 1 K! rst_i $end
     $var wire 32 O op1_i [31:0] $end
     $var wire 32 P op2_i [31:0] $end
     $var wire 32 S inst_i [31:0] $end
     $var wire 32 = reg_wdata_o [31:0] $end
     $var wire 1 U! reg_we_o $end
     $var wire 7 a opcode [6:0] $end
     $var wire 3 b funct3 [2:0] $end
     $var wire 7 c funct7 [6:0] $end
     $var wire 1 g op1_ge_op2_signed $end
     $var wire 1 h op1_ge_op2_unsigned $end
     $var wire 32 k sr_shift [31:0] $end
     $var wire 32 l sr_shift_mask [31:0] $end
     $var wire 1 n isType_r $end
    $upscope $end
    $scope module exe_type_s_l0 $end
     $var wire 1 K! rst_i $end
     $var wire 32 O op1_i [31:0] $end
     $var wire 32 P op2_i [31:0] $end
     $var wire 32 S inst_i [31:0] $end
     $var wire 32 Y! reg_wdata_o [31:0] $end
     $var wire 1 > reg_we_o $end
     $var wire 32 @ mem_addr_o [31:0] $end
     $var wire 32 ? mem_data_o [31:0] $end
     $var wire 1 A mem_we_o $end
     $var wire 4 B mem_op_o [3:0] $end
     $var wire 7 a opcode [6:0] $end
     $var wire 3 b funct3 [2:0] $end
     $var wire 32 o load_addr_offset [31:0] $end
     $var wire 32 p store_addr_offset [31:0] $end
    $upscope $end
   $upscope $end
   $scope module exe_mem0 $end
    $var wire 1 K! rst_i $end
    $var wire 1 L! clk_i $end
    $var wire 5 0 reg_waddr_i [4:0] $end
    $var wire 1 1 reg_we_i $end
    $var wire 32 2 reg_wdata_i [31:0] $end
    $var wire 1 P! mem_we_i $end
    $var wire 32 O! mem_addr_i [31:0] $end
    $var wire 32 Q! mem_data_i [31:0] $end
    $var wire 4 R! mem_op_i [3:0] $end
    $var wire 5 W reg_waddr_o [4:0] $end
    $var wire 1 X reg_we_o $end
    $var wire 32 Y reg_wdata_o [31:0] $end
    $var wire 1 [ mem_we_o $end
    $var wire 32 Z mem_addr_o [31:0] $end
    $var wire 32 \ mem_data_o [31:0] $end
    $var wire 4 ] mem_op_o [3:0] $end
   $upscope $end
   $scope module id0 $end
    $var wire 1 K! rst_i $end
    $var wire 32 L inst_addr_i [31:0] $end
    $var wire 32 M inst_i [31:0] $end
    $var wire 5 V exe_rd_i [4:0] $end
    $var wire 1 U pre_inst_is_load_i $end
    $var wire 32 9 reg1_rdata_i [31:0] $end
    $var wire 32 : reg2_rdata_i [31:0] $end
    $var wire 5 0 exe_reg_waddr_i [4:0] $end
    $var wire 32 2 exe_reg_wdata_i [31:0] $end
    $var wire 1 1 exe_reg_we_i $end
    $var wire 5 3 mem_reg_waddr_i [4:0] $end
    $var wire 32 5 mem_reg_wdata_i [31:0] $end
    $var wire 1 4 mem_reg_we_i $end
    $var wire 5 ' reg1_raddr_o [4:0] $end
    $var wire 5 ( reg2_raddr_o [4:0] $end
    $var wire 1 ) reg1_re_o $end
    $var wire 1 * reg2_re_o $end
    $var wire 32 + inst_o [31:0] $end
    $var wire 32 , op1_o [31:0] $end
    $var wire 32 - op2_o [31:0] $end
    $var wire 1 . reg_we_o $end
    $var wire 5 / reg_waddr_o [4:0] $end
    $var wire 32 L inst_addr_o [31:0] $end
    $var wire 1 N stallreq_o $end
    $var wire 32 C op1_o_final [31:0] $end
    $var wire 32 D op2_o_final [31:0] $end
    $var wire 7 q funct7 [6:0] $end
    $var wire 7 r opcode [6:0] $end
    $var wire 3 s funct3 [2:0] $end
    $var wire 5 t rd [4:0] $end
    $var wire 5 u rs1 [4:0] $end
    $var wire 5 v rs2 [4:0] $end
    $var wire 1 N is_load_hazard $end
    $var wire 5 w i_reg1_raddr_o [4:0] $end
    $var wire 5 x i_reg2_raddr_o [4:0] $end
    $var wire 1 y i_reg1_re_o $end
    $var wire 1 z i_reg2_re_o $end
    $var wire 32 E i_op1_o [31:0] $end
    $var wire 32 { i_op2_o [31:0] $end
    $var wire 1 | i_reg_we_o $end
    $var wire 5 } i_reg_waddr_o [4:0] $end
    $var wire 5 ~ r_reg1_raddr_o [4:0] $end
    $var wire 5 !! r_reg2_raddr_o [4:0] $end
    $var wire 1 "! r_reg1_re_o $end
    $var wire 1 #! r_reg2_re_o $end
    $var wire 32 F r_op1_o [31:0] $end
    $var wire 32 G r_op2_o [31:0] $end
    $var wire 1 $! r_reg_we_o $end
    $var wire 5 %! r_reg_waddr_o [4:0] $end
    $scope module inst_type_i $end
     $var wire 32 M inst_i [31:0] $end
     $var wire 32 9 reg1_rdata_i [31:0] $end
     $var wire 5 w reg1_raddr_o [4:0] $end
     $var wire 5 x reg2_raddr_o [4:0] $end
     $var wire 1 y reg1_re_o $end
     $var wire 1 z reg2_re_o $end
     $var wire 32 E op1_o [31:0] $end
     $var wire 32 { op2_o [31:0] $end
     $var wire 1 | reg_we_o $end
     $var wire 5 } reg_waddr_o [4:0] $end
     $var wire 7 r opcode [6:0] $end
     $var wire 3 s funct3 [2:0] $end
     $var wire 7 q funct7 [6:0] $end
     $var wire 5 v shamt [4:0] $end
     $var wire 5 t rd [4:0] $end
     $var wire 5 u rs1 [4:0] $end
     $var wire 5 v rs2 [4:0] $end
     $var wire 1 &! isType_i $end
    $upscope $end
    $scope module inst_type_r $end
     $var wire 32 M inst_i [31:0] $end
     $var wire 32 9 reg1_rdata_i [31:0] $end
     $var wire 32 : reg2_rdata_i [31:0] $end
     $var wire 5 ~ reg1_raddr_o [4:0] $end
     $var wire 5 !! reg2_raddr_o [4:0] $end
     $var wire 1 "! reg1_re_o $end
     $var wire 1 #! reg2_re_o $end
     $var wire 32 F op1_o [31:0] $end
     $var wire 32 G op2_o [31:0] $end
     $var wire 1 $! reg_we_o $end
     $var wire 5 %! reg_waddr_o [4:0] $end
     $var wire 7 r opcode [6:0] $end
     $var wire 3 s funct3 [2:0] $end
     $var wire 7 q funct7 [6:0] $end
     $var wire 5 v shamt [4:0] $end
     $var wire 5 t rd [4:0] $end
     $var wire 5 u rs1 [4:0] $end
     $var wire 5 v rs2 [4:0] $end
     $var wire 1 '! isType_r $end
     $var wire 1 (! isType_m $end
    $upscope $end
   $upscope $end
   $scope module id_exe0 $end
    $var wire 1 K! rst_i $end
    $var wire 1 L! clk_i $end
    $var wire 32 , op1_i [31:0] $end
    $var wire 32 - op2_i [31:0] $end
    $var wire 1 . reg_we_i $end
    $var wire 5 / reg_waddr_i [4:0] $end
    $var wire 32 + inst_i [31:0] $end
    $var wire 32 L inst_addr_i [31:0] $end
    $var wire 1 U inst_is_load_o $end
    $var wire 5 V rd_o [4:0] $end
    $var wire 6 % stall_i [5:0] $end
    $var wire 1 $ flush_jump_i $end
    $var wire 32 O op1_o [31:0] $end
    $var wire 32 P op2_o [31:0] $end
    $var wire 1 Q reg_we_o $end
    $var wire 5 R reg_waddr_o [4:0] $end
    $var wire 32 T inst_addr_o [31:0] $end
    $var wire 32 S inst_o [31:0] $end
    $var wire 7 H opcode [6:0] $end
   $upscope $end
   $scope module if_id0 $end
    $var wire 1 L! clk_i $end
    $var wire 1 K! rst_i $end
    $var wire 32 J inst_addr_i [31:0] $end
    $var wire 32 M! inst_i [31:0] $end
    $var wire 6 % stall_i [5:0] $end
    $var wire 1 $ flush_jump_i $end
    $var wire 32 L inst_addr_o [31:0] $end
    $var wire 32 M inst_o [31:0] $end
   $upscope $end
   $scope module mem0 $end
    $var wire 1 K! rst_i $end
    $var wire 5 W reg_waddr_i [4:0] $end
    $var wire 1 X reg_we_i $end
    $var wire 32 Y reg_wdata_i [31:0] $end
    $var wire 1 [ mem_we_i $end
    $var wire 32 Z mem_addr_i [31:0] $end
    $var wire 32 \ mem_data_i [31:0] $end
    $var wire 4 ] mem_op_i [3:0] $end
    $var wire 32 & ram_data_i [31:0] $end
    $var wire 32 6 ram_addr_o [31:0] $end
    $var wire 1 7 ram_w_request_o $end
    $var wire 32 8 ram_data_o [31:0] $end
    $var wire 1 ; ram_ce_o $end
    $var wire 5 3 reg_waddr_o [4:0] $end
    $var wire 1 4 reg_we_o $end
    $var wire 32 5 reg_wdata_o [31:0] $end
    $var wire 2 )! ram_addr_offset [1:0] $end
   $upscope $end
   $scope module mem_wb0 $end
    $var wire 1 K! rst_i $end
    $var wire 1 L! clk_i $end
    $var wire 5 3 reg_waddr_i [4:0] $end
    $var wire 1 4 reg_we_i $end
    $var wire 32 5 reg_wdata_i [31:0] $end
    $var wire 5 ^ reg_waddr_o [4:0] $end
    $var wire 1 _ reg_we_o $end
    $var wire 32 ` reg_wdata_o [31:0] $end
   $upscope $end
   $scope module pc_reg0 $end
    $var wire 1 L! clk_i $end
    $var wire 1 K! rst_i $end
    $var wire 32 N! new_pc_i [31:0] $end
    $var wire 1 $ flush_jump_i $end
    $var wire 6 % stall_i [5:0] $end
    $var wire 32 J pc_o [31:0] $end
    $var wire 1 K ce_o $end
    $var wire 1 $ is_new_pc $end
   $upscope $end
  $upscope $end
  $var wire 1 K! rst_i $end
  $var wire 1 L! clk_i $end
 $upscope $end
$enddefinitions $end


#5
b00000000000000000000000000100000 #
0$
b000000 %
b00000000000000000000000000000000 &
b00000 '
b00000 (
0)
0*
b00000000000000000000000000010011 +
b00000000000000000000000000000000 ,
b00000000000000000000000000000000 -
0.
b00000 /
b00000 0
01
b00000000000000000000000000000000 2
b00000 3
04
b00000000000000000000000000000000 5
b00000000000000000000000000000000 6
07
b00000000000000000000000000000000 8
b00000000000000000000000000000000 9
b00000000000000000000000000000000 :
0;
b00000000000000000000000000000000 <
b00000000000000000000000000000000 =
0>
b00000000000000000000000000000000 ?
b00000000000000000000000000000000 @
0A
b0000 B
b00000000000000000000000000000000 C
b00000000000000000000000000000000 D
b00000000000000000000000000000000 E
b00000000000000000000000000000000 F
b00000000000000000000000000000000 G
b0010011 H
b000000000000000000000 I
b00000000000000000000000000000000 J
0K
b00000000000000000000000000000000 L
b00000000000000000000000000000000 M
0N
b00000000000000000000000000000000 O
b00000000000000000000000000000000 P
0Q
b00000 R
b00000000000000000000000000000000 S
b00000000000000000000000000000000 T
0U
b00000 V
b00000 W
0X
b00000000000000000000000000000000 Y
b00000000000000000000000000000000 Z
0[
b00000000000000000000000000000000 \
b0000 ]
b00000 ^
0_
b00000000000000000000000000000000 `
b0000000 a
b000 b
b0000000 c
b00000000000000000000000000000000 d
0e
1f
1g
1h
b00000000000000000000000000000000 i
b00000000000000000000000000000000 j
b00000000000000000000000000000000 k
b11111111111111111111111111111111 l
0m
0n
b00000000000000000000000000000000 o
b00000000000000000000000000000000 p
b0000000 q
b0000000 r
b000 s
b00000 t
b00000 u
b00000 v
b00000 w
b00000 x
0y
0z
b00000000000000000000000000000000 {
0|
b00000 }
b00000 ~
b00000 !!
0"!
0#!
0$!
b00000 %!
0&!
0'!
0(!
b00 )!
b00000000000000000000000000000000 *!
b00000000000000000000000000000000 +!
b00000000000000000000000000000000 ,!
b00000000000000000000000000000000 -!
b00000000000000000000000000000000 .!
b00000000000000000000000000000000 /!
b00000000000000000000000000000000 0!
b00000000000000000000000000000000 1!
b00000000000000000000000000000000 2!
b00000000000000000000000000000000 3!
b00000000000000000000000000000000 4!
b00000000000000000000000000000000 5!
b00000000000000000000000000000000 6!
b00000000000000000000000000000000 7!
b00000000000000000000000000000000 8!
b00000000000000000000000000000000 9!
b00000000000000000000000000000000 :!
b00000000000000000000000000000000 ;!
b00000000000000000000000000000000 <!
b00000000000000000000000000000000 =!
b00000000000000000000000000000000 >!
b00000000000000000000000000000000 ?!
b00000000000000000000000000000000 @!
b00000000000000000000000000000000 A!
b00000000000000000000000000000000 B!
b00000000000000000000000000000000 C!
b00000000000000000000000000000000 D!
b00000000000000000000000000000000 E!
b00000000000000000000000000000000 F!
b00000000000000000000000000000000 G!
b00000000000000000000000000000000 H!
b00000000000000000000000000000000 I!
b000000000000000000000 J!
1K!
0L!
b00000000000000000000000000000000 M!
b00000000000000000000000000000000 N!
b00000000000000000000000000000000 O!
0P!
b00000000000000000000000000000000 Q!
b0000 R!
b00000000000000000000000000000000 S!
0T!
0U!
0V!
b00000000001000000000000000000000 W!
b00000000000000000000000000010101 X!
b00000000000000000000000000000000 Y!
b00000000001000000000000000000000 Z!
b00000000000000000000000000010101 [!
#10
b00000000000000000000000000010011 M
b00000000000000000000000000010011 S
1X
b0010011 a
1m
b0010011 r
1y
1|
1&!
1L!
#15
0L!
#20
1L!
#25
0L!
#30
1L!
#35
0L!
#40
1L!
#45
0L!
#50
1L!
#55
1)
1.
11
14
0K!
0L!
1T!
#60
0)
0.
1K
b00000000000000000000000000000000 M
1Q
1_
b0000000 r
0y
0|
0&!
1L!
b00000000010100000000001000010011 M!
#65
0L!
#70
1)
b00000000010100000000001000010011 +
b00000000000000000000000000000101 -
1.
b00100 /
b00000000000000000000000000000101 D
b00000000000000000000000000000100 J
b00000000010100000000001000010011 M
0Q
b0010011 r
b00100 t
b00101 v
1y
b00000000000000000000000000000101 {
1|
b00100 }
1&!
b000000000000000000100 J!
1L!
b00000000010100000000001010010011 M!
#75
0L!
#80
b00000000010100000000001010010011 +
b00101 /
b00100 0
b00000000000000000000000000000101 2
b00000000000000000000000000000101 <
b00000000000000000000000000001000 J
b00000000000000000000000000000100 L
b00000000010100000000001010010011 M
b00000000000000000000000000000101 P
1Q
b00100 R
b00000000010100000000001000010011 S
b00100 V
0f
0g
0h
b00000000000000000000000000000100 i
b00000000000000000000100000000100 j
b00000111111111111111111111111111 l
b00000000000000000000000000000101 o
b00000000000000000000000000000100 p
b00101 t
b00101 }
b000000000000000001000 J!
1L!
b00000000010100100000010001100011 M!
#85
0L!
#90
b00100 '
b00101 (
1*
b00000000010100100000010001100011 +
b00000000000000000000000000000101 ,
0.
b00101 0
b00100 3
b00000000000000000000000000000101 5
b00000000000000000000000000000000 D
b1100011 H
b00000000000000000000000000001100 J
b00000000000000000000000000001000 L
b00000000010100100000010001100011 M
b00101 R
b00000000010100000000001010010011 S
b00000000000000000000000000000100 T
b00101 V
b00100 W
b00000000000000000000000000000101 Y
b00000000000000000000100000000100 i
b00000000000000000000000000000101 p
b1100011 r
b01000 t
b00100 u
0y
b00000000000000000000000000000000 {
0|
b00000 }
0&!
b000000000000000001100 J!
1L!
b00000000000100000000001100010011 M!
#95
0L!
#100
1$
b00000 '
b00000 (
0*
b00000000000100000000001100010011 +
b00000000000000000000000000000000 ,
b00000000000000000000000000000001 -
1.
b00110 /
b00000 0
01
b00000000000000000000000000000000 2
b00101 3
b00000000000000000000000000000000 <
b00000000000000000000000000000001 D
b0010011 H
b00000000000000000000000000010000 J
b00000000000000000000000000001100 L
b00000000000100000000001100010011 M
b00000000000000000000000000000101 O
0Q
b00000000010100100000010001100011 S
b00000000000000000000000000001000 T
b01000 V
b00101 W
b00100 ^
b00000000000000000000000000000101 `
b1100011 a
b00000000000000000000000000010000 d
1e
1f
1g
1h
b00000000000000000000000000001000 i
b00000000000000100000100000000100 j
0m
b00000000000000000000000000001000 p
b0010011 r
b00110 t
b00000 u
b00001 v
1y
b00000000000000000000000000000001 {
1|
b00110 }
1&!
b000000000000000010000 J!
1L!
b00000000001000000000001100010011 M!
b00000000000000000000000000010000 N!
b00000000000000000000000000010000 S!
0T!
#105
0L!
#110
0$
b00000000000000000000000000010011 +
b00000000000000000000000000000000 -
b00000 /
11
b00000 3
04
b00000000000000000000000000000000 5
b00000000000000000000000000000000 D
b00000000000000000000000000000000 L
b00000000000000000000000000010011 M
b00000000000000000000000000000000 O
b00000000000000000000000000000000 P
b00000 R
b00000000000000000000000000010011 S
b00000 V
b00000 W
0X
b00000000000000000000000000000000 Y
b00101 ^
b0010011 a
b00000000000000000000000000000000 d
0e
b00000000000000000000000000000000 i
b00000000000000000000000000000000 j
b11111111111111111111111111111111 l
1m
b00000000000000000000000000000000 o
b00000000000000000000000000000000 p
b00000 t
b00000 v
b00000000000000000000000000000000 {
b00000 }
b00000000000000000000000000000101 .!
1L!
b00000000000000000000000000000000 N!
b00000000000000000000000000000000 S!
1T!
#115
0L!
#120
b00000000001000000000001100010011 +
b00000000000000000000000000000010 -
b00110 /
14
b00000000000000000000000000000010 D
b00000000000000000000000000010100 J
b00000000000000000000000000010000 L
b00000000001000000000001100010011 M
1Q
b00000000000000000000000000000000 T
1X
b00000 ^
0_
b00000000000000000000000000000000 `
b00110 t
b00010 v
b00000000000000000000000000000010 {
b00110 }
b00000000000000000000000000000101 /!
b000000000000000010100 J!
1L!
b00000000000000000000000000000000 M!
#125
0L!
#130
0)
b00000000000000000000000000010011 +
b00000000000000000000000000000000 -
0.
b00000 /
b00110 0
b00000000000000000000000000000010 2
b00000000000000000000000000000010 <
b00000000000000000000000000000000 D
b00000000000000000000000000011000 J
b00000000000000000000000000010100 L
b00000000000000000000000000000000 M
b00000000000000000000000000000010 P
b00110 R
b00000000001000000000001100010011 S
b00000000000000000000000000010000 T
b00110 V
1_
0f
0g
0h
b00000000000000000000000000000110 i
b00000000000000000000000000000010 j
b00111111111111111111111111111111 l
b00000000000000000000000000000010 o
b00000000000000000000000000000110 p
b0000000 r
b00000 t
b00000 v
0y
b00000000000000000000000000000000 {
0|
b00000 }
0&!
b000000000000000011000 J!
1L!
#135
0L!
#140
b00000 0
b00000000000000000000000000000000 2
b00110 3
b00000000000000000000000000000010 5
b00000000000000000000000000000000 <
b00000000000000000000000000011100 J
b00000000000000000000000000011000 L
b00000000000000000000000000000000 P
0Q
b00000 R
b00000000000000000000000000010011 S
b00000000000000000000000000010100 T
b00000 V
b00110 W
b00000000000000000000000000000010 Y
1f
1g
1h
b00000000000000000000000000000000 i
b00000000000000000000000000000000 j
b11111111111111111111111111111111 l
b00000000000000000000000000000000 o
b00000000000000000000000000000000 p
b000000000000000011100 J!
1L!
#145
0L!
#150
b00000 3
b00000000000000000000000000000000 5
b00000000000000000000000000100000 J
b00000000000000000000000000011100 L
b00000000000000000000000000011000 T
b00000 W
b00000000000000000000000000000000 Y
b00110 ^
b00000000000000000000000000000010 `
b000000000000000100000 J!
1L!
#155
0L!
#160
b00000000000000000000000000100100 J
b00000000000000000000000000100000 L
b00000000000000000000000000011100 T
b00000 ^
b00000000000000000000000000000000 `
b00000000000000000000000000000010 0!
b000000000000000100100 J!
1L!
#165
0L!
#170
b00000000000000000000000000101000 J
b00000000000000000000000000100100 L
b00000000000000000000000000100000 T
b000000000000000101000 J!
1L!
#175
0L!
#180
b00000000000000000000000000101100 J
b00000000000000000000000000101000 L
b00000000000000000000000000100100 T
b000000000000000101100 J!
1L!
#185
0L!
#190
b00000000000000000000000000110000 J
b00000000000000000000000000101100 L
b00000000000000000000000000101000 T
b000000000000000110000 J!
1L!
#195
0L!
#200
b00000000000000000000000000110100 J
b00000000000000000000000000110000 L
b00000000000000000000000000101100 T
b000000000000000110100 J!
1L!
#205
0L!
#210
b00000000000000000000000000111000 J
b00000000000000000000000000110100 L
b00000000000000000000000000110000 T
b000000000000000111000 J!
1L!
#215
0L!
#220
b00000000000000000000000000111100 J
b00000000000000000000000000111000 L
b00000000000000000000000000110100 T
b000000000000000111100 J!
1L!
#225
0L!
#230
b00000000000000000000000001000000 J
b00000000000000000000000000111100 L
b00000000000000000000000000111000 T
b000000000000001000000 J!
1L!
#235
0L!
#240
b00000000000000000000000001000100 J
b00000000000000000000000001000000 L
b00000000000000000000000000111100 T
b000000000000001000100 J!
1L!
#245
0L!
#250
b00000000000000000000000001001000 J
b00000000000000000000000001000100 L
b00000000000000000000000001000000 T
b000000000000001001000 J!
1L!
#255
0L!
#260
b00000000000000000000000001001100 J
b00000000000000000000000001001000 L
b00000000000000000000000001000100 T
b000000000000001001100 J!
1L!
#265
0L!
#270
b00000000000000000000000001010000 J
b00000000000000000000000001001100 L
b00000000000000000000000001001000 T
b000000000000001010000 J!
1L!
#275
0L!
#280
b00000000000000000000000001010100 J
b00000000000000000000000001010000 L
b00000000000000000000000001001100 T
b000000000000001010100 J!
1L!
#285
0L!
#290
b00000000000000000000000001011000 J
b00000000000000000000000001010100 L
b00000000000000000000000001010000 T
b000000000000001011000 J!
1L!
#295
0L!
#300
b00000000000000000000000001011100 J
b00000000000000000000000001011000 L
b00000000000000000000000001010100 T
b000000000000001011100 J!
1L!
#305
0L!
#310
b00000000000000000000000001100000 J
b00000000000000000000000001011100 L
b00000000000000000000000001011000 T
b000000000000001100000 J!
1L!
#315
0L!
#320
b00000000000000000000000001100100 J
b00000000000000000000000001100000 L
b00000000000000000000000001011100 T
b000000000000001100100 J!
1L!
#325
0L!
#330
b00000000000000000000000001101000 J
b00000000000000000000000001100100 L
b00000000000000000000000001100000 T
b000000000000001101000 J!
1L!
#335
0L!
#340
b00000000000000000000000001101100 J
b00000000000000000000000001101000 L
b00000000000000000000000001100100 T
b000000000000001101100 J!
1L!
#345
0L!
